A000020,KR7000020008,동화약품,0,1
A000030,KR7000030007,우리은행,0,1
A000040,KR7000040006,KR모터스,0,1
A000050,KR7000050005,경방,0,1
A000060,KR7000060004,메리츠화재,0,1
A000070,KR7000070003,삼양홀딩스,0,1
A000075,KR7000071001,삼양홀딩스우,0,1
A000080,KR7000080002,하이트진로,0,1
A000087,KR7000082008,하이트진로2우B,0,1
A000100,KR7000100008,유한양행,0,1
A000105,KR7000101006,유한양행우,0,1
A000120,KR7000120006,CJ대한통운,0,1
A000140,KR7000140004,하이트진로홀딩스,0,1
A000145,KR7000141002,하이트진로홀딩스우,0,1
A000150,KR7000150003,두산,0,1
A000155,KR7000151001,두산우,0,1
A000157,KR7000152009,두산2우B,0,1
A000180,KR7000180000,성창기업지주,0,1
A000210,KR7000210005,대림산업,0,1
A000215,KR7000211003,대림산업우,0,1
A000220,KR7000220004,유유제약,0,1
A000225,KR7000221002,유유제약1우,0,1
A000227,KR7000222000,유유제약2우B,0,1
A000230,KR7000230003,일동제약,0,1
A000240,KR7000240002,한국타이어월드와이드,0,1
A000270,KR7000270009,기아차,0,1
A000300,KR7000300004,대유신소재,0,1
A000320,KR7000320002,노루홀딩스,0,1
A000325,KR7000321000,노루홀딩스우,0,1
A000327,KR7000322008,노루홀딩스2우B,0,1
A000370,KR7000370007,한화손해보험,0,1
A000390,KR7000390005,삼화페인트,0,1
A000400,KR7000400002,롯데손해보험,0,1
A000430,KR7000430009,대원강업,0,1
A000480,KR7000480004,조선내화,0,1
A000490,KR7000490003,대동공업,0,1
A000500,KR7000500009,가온전선,0,1
A000520,KR7000520007,삼일제약,0,1
A000540,KR7000540005,흥국화재,0,1
A000545,KR7000541003,흥국화재우,0,1
A000547,KR7000542001,흥국화재2우B,0,1
A000590,KR7000590000,CS홀딩스,0,1
A000640,KR7000640003,동아쏘시오홀딩스,0,1
A000650,KR7000650002,천일고속,0,1
A000660,KR7000660001,SK하이닉스,0,1
A000670,KR7000670000,영풍,0,1
A000680,KR7000680009,LS네트웍스,0,1
A000687,KR7000682005,LS네트웍스전환상환2,0,1
A000700,KR7000700005,유수홀딩스,0,1
A000720,KR7000720003,현대건설,0,1
A000725,KR7000721001,현대건설우,0,1
A000760,KR7000760009,이화산업,0,1
A000810,KR7000810002,삼성화재,0,1
A000815,KR7000811000,삼성화재우,0,1
A000830,KR7000830000,삼성물산,0,1
A000835,KR7000831008,삼성물산우,0,1
A000850,KR7000850008,화천기공,0,1
A000860,KR7000860007,건설화학,0,1
A000880,KR7000880005,한화,0,1
A000885,KR7000881003,한화우,0,1
A000890,KR7000890004,보해양조,0,1
A000910,KR7000910000,유니온,0,1
A000950,KR7000950006,전방,0,1
A000970,KR7000970004,한국주철관,0,1
A000990,KR7000990002,동부하이텍,0,1
A000995,KR7000991000,동부하이텍1우,0,1
A001020,KR7001020007,페이퍼코리아,0,1
A001040,KR7001040005,CJ,0,1
A001045,KR7001041003,CJ우,0,1
A001060,KR7001060003,JW중외제약,0,1
A001065,KR7001061001,JW중외제약우,0,1
A001067,KR7001062009,JW중외제약2우B,0,1
A001070,KR7001070002,대한방직,0,1
A001080,KR7001080001,만호제강,0,1
A001120,KR7001120005,LG상사,0,1
A001130,KR7001130004,대한제분,0,1
A001140,KR7001140003,국보,0,1
A001200,KR7001200005,유진투자증권,0,1
A001210,KR7001210004,금호전기,0,1
A001230,KR7001230002,동국제강,0,1
A001250,KR7001250000,GS글로벌,0,1
A001260,KR7001260009,남광토건,0,1
A001270,KR7001270008,부국증권,0,1
A001275,KR7001271006,부국증권우,0,1
A001290,KR7001290006,골든브릿지증권,0,1
A001340,KR7001340009,백광산업,0,1
A001360,KR7001360007,삼성제약,0,1
A001380,KR7001380005,SG충남방적,0,1
A001390,KR7001390004,KG케미칼,0,1
A001420,KR7001420009,태원물산,0,1
A001430,KR7001430008,세아베스틸,0,1
A001440,KR7001440007,대한전선,0,1
A001450,KR7001450006,현대해상,0,1
A001460,KR7001460005,BYC,0,1
A001465,KR7001461003,BYC우,0,1
A001470,KR7001470004,삼부토건,0,1
A001500,KR7001500008,HMC투자증권,0,1
A001510,KR7001510007,SK증권,0,1
A001515,KR7001511005,SK증권우,0,1
A001520,KR7001520006,동양,0,1
A001525,KR7001521004,동양우,0,1
A001527,KR7001522002,동양2우B,0,1
A001529,KR7001523000,동양3우B,0,1
A001530,KR7001530005,동일방직,0,1
A001550,KR7001550003,조비,0,1
A001560,KR7001560002,제일연마,0,1
A001570,KR7001570001,금양,0,1
A001620,KR7001620004,동국실업,0,1
A001630,KR7001630003,종근당홀딩스,0,1
A001680,KR7001680008,대상,0,1
A001685,KR7001681006,대상우,0,1
A001689,KR7001683002,대상3우B,0,1
A001720,KR7001720002,신영증권,0,1
A001725,KR7001721000,신영증권우,0,1
A001740,KR7001740000,SK네트웍스,0,1
A001745,KR7001741008,SK네트웍스우,0,1
A001750,KR7001750009,한양증권,0,1
A001755,KR7001751007,한양증권우,0,1
A001770,KR7001770007,신화실업,0,1
A001780,KR7001780006,알루코,0,1
A001790,KR7001790005,대한제당,0,1
A001795,KR7001791003,대한제당우,0,1
A001799,KR7001793009,대한제당3우B,0,1
A001800,KR7001800002,오리온,0,1
A001820,KR7001820000,삼화콘덴서,0,1
A001940,KR7001940006,KISCO홀딩스,0,1
A002000,KR7002000008,한국유리,0,1
A002005,KR7002001006,한국유리우,0,1
A002020,KR7002020006,코오롱,0,1
A002025,KR7002021004,코오롱우,0,1
A002030,KR7002030005,아세아,0,1
A002070,KR7002070001,남영비비안,0,1
A002100,KR7002100006,경농,0,1
A002140,KR7002140002,고려산업,0,1
A002150,KR7002150001,도화엔지니어링,0,1
A002170,KR7002170009,삼양통상,0,1
A002200,KR7002200004,수출포장,0,1
A002210,KR7002210003,동성제약,0,1
A002220,KR7002220002,한일철강,0,1
A002240,KR7002240000,고려제강,0,1
A002250,KR7002250009,알보젠코리아,0,1
A002270,KR7002270007,롯데푸드,0,1
A002300,KR7002300002,한국제지,0,1
A002310,KR7002310001,아세아제지,0,1
A002320,KR7002320000,한진,0,1
A002350,KR7002350007,넥센타이어,0,1
A002355,KR7002351005,넥센타이어1우B,0,1
A002360,KR7002360006,SH에너지화학,0,1
A002380,KR7002380004,KCC,0,1
A002390,KR7002390003,한독,0,1
A002410,KR7002410009,범양건영,0,1
A002420,KR7002420008,세기상사,0,1
A002450,KR7002450005,삼익악기,0,1
A002460,KR7002460004,화성산업,0,1
A002550,KR7002550002,KB손해보험,0,1
A002600,KR7002600005,조흥,0,1
A002620,KR7002620003,제일약품,0,1
A002630,KR7002630002,오리엔트바이오,0,1
A002700,KR7002700003,신일산업,0,1
A002710,KR7002710002,TCC동양,0,1
A002720,KR7002720001,국제약품,0,1
A002760,KR7002760007,보락,0,1
A002780,KR7002780005,진흥기업,0,1
A002785,KR7002781003,진흥기업우B,0,1
A002787,KR7002782001,진흥기업2우B,0,1
A002790,KR7002790004,아모레G,0,1
A002795,KR7002791002,아모레G우,0,1
A002810,KR7002810000,삼영무역,0,1
A002820,KR7002820009,선창산업,0,1
A002840,KR7002840007,미원상사,0,1
A002870,KR7002870004,신풍제지,0,1
A002880,KR7002880003,대유에이텍,0,1
A002900,KR7002900009,동양물산,0,1
A002920,KR7002920007,유성기업,0,1
A002960,KR7002960003,한국쉘석유,0,1
A002990,KR7002990000,금호산업,0,1
A002995,KR7002991008,금호산업우,0,1
A003000,KR7003000007,부광약품,0,1
A003010,KR7003010006,혜인,0,1
A003030,KR7003030004,세아제강,0,1
A003060,KR7003060001,슈넬생명과학,0,1
A003070,KR7003070000,코오롱글로벌,0,1
A003075,KR7003071008,코오롱글로벌우,0,1
A003080,KR7003080009,성보화학,0,1
A003090,KR7003090008,대웅,0,1
A003120,KR7003120003,일성신약,0,1
A003160,KR7003160009,디아이,0,1
A003200,KR7003200003,일신방직,0,1
A003220,KR7003220001,대원제약,0,1
A003230,KR7003230000,삼양식품,0,1
A003240,KR7003240009,태광산업,0,1
A003280,KR7003280005,흥아해운,0,1
A003300,KR7003300001,한일시멘트,0,1
A003350,KR7003350006,한국화장품제조,0,1
A003410,KR7003410008,쌍용양회,0,1
A003415,KR7003411006,쌍용양회우,0,1
A003419,KR7003413002,쌍용양회3우B,0,1
A003450,KR7003450004,현대증권,0,1
A003460,KR7003460003,유화증권,0,1
A003465,KR7003461001,유화증권우,0,1
A003470,KR7003470002,유안타증권,0,1
A003475,KR7003471000,유안타증권우,0,1
A003480,KR7003480001,한진중공업홀딩스,0,1
A003490,KR7003490000,대한항공,0,1
A003495,KR7003491008,대한항공우,0,1
A003520,KR7003520004,영진약품,0,1
A003530,KR7003530003,한화투자증권,0,1
A003535,KR7003531001,한화투자증권우,0,1
A003540,KR7003540002,대신증권,0,1
A003545,KR7003541000,대신증권우,0,1
A003547,KR7003542008,대신증권2우B,0,1
A003550,KR7003550001,LG,0,1
A003555,KR7003551009,LG우,0,1
A003560,KR7003560000,IHQ,0,1
A003570,KR7003570009,S&T중공업,0,1
A003580,KR7003580008,동원,0,1
A003610,KR7003610003,방림,0,1
A003620,KR7003620002,쌍용차,0,1
A003650,KR7003650009,미창석유,0,1
A003680,KR7003680006,한성기업,0,1
A003690,KR7003690005,코리안리,0,1
A003720,KR7003720000,삼영화학,0,1
A003780,KR7003780004,진양산업,0,1
A003830,KR7003830007,대한화섬,0,1
A003850,KR7003850005,보령제약,0,1
A003920,KR7003920006,남양유업,0,1
A003925,KR7003921004,남양유업우,0,1
A003940,KR7003940004,삼양제넥스,0,1
A003945,KR7003941002,삼양제넥우,0,1
A003960,KR7003960002,사조대림,0,1
A004000,KR7004000006,삼성정밀화학,0,1
A004020,KR7004020004,현대제철,0,1
A004060,KR7004060000,SG세계물산,0,1
A004080,KR7004080008,신흥,0,1
A004090,KR7004090007,한국석유,0,1
A004100,KR7004100004,태양금속,0,1
A004105,KR7004101002,태양금속우,0,1
A004130,KR7004130001,대덕GDS,0,1
A004135,KR7004131009,대덕GDS우,0,1
A004140,KR7004140000,동방,0,1
A004150,KR7004150009,한솔홀딩스,0,1
A004170,KR7004170007,신세계,0,1
A004200,KR7004200002,고려개발,0,1
A004250,KR7004250007,NPC,0,1
A004255,KR7004251005,NPC우,0,1
A004270,KR7004270005,남성,0,1
A004310,KR7004310009,현대약품,0,1
A004360,KR7004360004,세방,0,1
A004365,KR7004361002,세방우,0,1
A004370,KR7004370003,농심,0,1
A004380,KR7004380002,삼익THK,0,1
A004410,KR7004410007,서울식품,0,1
A004415,KR7004411005,서울식품우,0,1
A004430,KR7004430005,송원산업,0,1
A004450,KR7004450003,삼화왕관,0,1
A004490,KR7004490009,세방전지,0,1
A004540,KR7004540001,깨끗한나라,0,1
A004545,KR7004541009,깨끗한나라우,0,1
A004560,KR7004560009,현대비앤지스틸,0,1
A004565,KR7004561007,현대비앤지스틸우,0,1
A004690,KR7004690004,삼천리,0,1
A004700,KR7004700001,조광피혁,0,1
A004710,KR7004710000,한솔테크닉스,0,1
A004720,KR7004720009,우리들제약,0,1
A004740,KR7004740007,보루네오,0,1
A004770,KR7004770004,써니전자,0,1
A004800,KR7004800009,효성,0,1
A004830,KR7004830006,덕성,0,1
A004835,KR7004831004,덕성우,0,1
A004840,KR7004840005,DRB동일,0,1
A004870,KR7004870002,티웨이홀딩스,0,1
A004890,KR7004890000,동일산업,0,1
A004910,KR7004910006,조광페인트,0,1
A004920,KR7004920005,씨아이테크,0,1
A004960,KR7004960001,한신공영,0,1
A004970,KR7004970000,신라교역,0,1
A004980,KR7004980009,성신양회,0,1
A004985,KR7004981007,성신양회우,0,1
A004987,KR7004982005,성신양회2우B,0,1
A004989,KR7004983003,성신양회3우B,0,1
A004990,KR7004990008,롯데제과,0,1
A005010,KR7005010004,휴스틸,0,1
A005030,KR7005030002,부산주공,0,1
A005070,KR7005070008,코스모신소재,0,1
A005090,KR7005090006,삼광글라스,0,1
A005110,KR7005110002,한창,0,1
A005180,KR7005180005,빙그레,0,1
A005190,KR7005190004,동성화학,0,1
A005250,KR7005250006,녹십자홀딩스,0,1
A005255,KR7005251004,녹십자홀딩스1우,0,1
A005257,KR7005252002,녹십자홀딩스2우,0,1
A005300,KR7005300009,롯데칠성,0,1
A005305,KR7005301007,롯데칠성우,0,1
A005320,KR7005320007,국동,0,1
A005360,KR7005360003,모나미,0,1
A005380,KR7005380001,현대차,0,1
A005385,KR7005381009,현대차우,0,1
A005387,KR7005382007,현대차2우B,0,1
A005389,KR7005383005,현대차3우B,0,1
A005390,KR7005390000,신성통상,0,1
A005420,KR7005420005,코스모화학,0,1
A005430,KR7005430004,한국공항,0,1
A005440,KR7005440003,현대그린푸드,0,1
A005450,KR7005450002,신한,0,1
A005490,KR7005490008,POSCO,0,1
A005500,KR7005500004,삼진제약,0,1
A005610,KR7005610001,삼립식품,0,1
A005620,KR7005620000,대성합동지주,0,1
A005680,KR7005680004,삼영전자,0,1
A005690,KR7005690003,파미셀,0,1
A005720,KR7005720008,넥센,0,1
A005725,KR7005721006,넥센우,0,1
A005740,KR7005740006,크라운제과,0,1
A005745,KR7005741004,크라운제우,0,1
A005750,KR7005750005,대림B&Co,0,1
A005800,KR7005800008,신영와코루,0,1
A005810,KR7005810007,풍산홀딩스,0,1
A005820,KR7005820006,원림,0,1
A005830,KR7005830005,동부화재,0,1
A005850,KR7005850003,에스엘,0,1
A005870,KR7005870001,휴니드,0,1
A005880,KR7005880000,대한해운,0,1
A005930,KR7005930003,삼성전자,0,1
A005935,KR7005931001,삼성전자우,0,1
A005940,KR7005940002,NH투자증권,0,1
A005945,KR7005941000,NH투자증권우,0,1
A005950,KR7005950001,이수화학,0,1
A005960,KR7005960000,동부건설,0,1
A005965,KR7005961008,동부건설우,0,1
A005980,KR7005980008,성지건설,0,1
A006040,KR7006040000,동원산업,0,1
A006060,KR7006060008,화승인더,0,1
A006090,KR7006090005,사조오양,0,1
A006110,KR7006110001,삼아알미늄,0,1
A006120,KR7006120000,SK케미칼,0,1
A006125,KR7006121008,SK케미칼우,0,1
A006200,KR7006200000,한국전자홀딩스,0,1
A006220,KR7006220008,제주은행,0,1
A006260,KR7006260004,LS,0,1
A006280,KR7006280002,녹십자,0,1
A006340,KR7006340004,대원전선,0,1
A006345,KR7006341002,대원전선우,0,1
A006360,KR7006360002,GS건설,0,1
A006370,KR7006370001,대구백화점,0,1
A006380,KR7006380000,카프로,0,1
A006390,KR7006390009,현대시멘트,0,1
A006400,KR7006400006,삼성SDI,0,1
A006405,KR7006401004,삼성SDI우,0,1
A006490,KR7006490007,인스코비,0,1
A006570,KR7006570006,대림통상,0,1
A006650,KR7006650006,대한유화,0,1
A006660,KR7006660005,삼성공조,0,1
A006740,KR7006740005,영풍제지,0,1
A006800,KR7006800007,대우증권,0,1
A006805,KR7006801005,대우증권우,0,1
A006840,KR7006840003,AK홀딩스,0,1
A006880,KR7006880009,신송홀딩스,0,1
A006890,KR7006890008,태경화학,0,1
A006980,KR7006980007,우성사료,0,1
A007070,KR7007070006,GS리테일,0,1
A007110,KR7007110000,일신석재,0,1
A007120,KR7007120009,미래아이앤지,0,1
A007160,KR7007160005,사조산업,0,1
A007190,KR7007190002,한솔아트원제지,0,1
A007197,KR7007192008,한솔아트원제지2우B,0,1
A007210,KR7007210008,벽산,0,1
A007280,KR7007280001,한국특수형강,0,1
A007310,KR7007310006,오뚜기,0,1
A007340,KR7007340003,동아타이어,0,1
A007460,KR7007460009,나라케이아이씨,0,1
A007540,KR7007540008,샘표식품,0,1
A007570,KR7007570005,일양약품,0,1
A007575,KR7007571003,일양약품우,0,1
A007590,KR7007590003,동방아그로,0,1
A007610,KR7007610009,선도전기,0,1
A007630,KR7007630007,지에스인스트루,0,1
A007660,KR7007660004,이수페타시스,0,1
A007690,KR7007690001,국도화학,0,1
A007700,KR7007700008,F&F,0,1
A007810,KR7007810005,코리아써키트,0,1
A007815,KR7007811003,코리아써우,0,1
A00781K,KR700781K015,코리아써키트2우B,0,1
A007860,KR7007860000,서연,0,1
A007980,KR7007980006,태평양물산,0,1
A008000,KR7008000002,도레이케미칼,0,1
A008020,KR7008020000,경남에너지,0,1
A008040,KR7008040008,동아원,0,1
A008060,KR7008060006,대덕전자,0,1
A008110,KR7008110009,대동전자,0,1
A008250,KR7008250003,이건산업,0,1
A008260,KR7008260002,NI스틸,0,1
A008350,KR7008350001,남선알미늄,0,1
A008355,KR7008351009,남선알미우,0,1
A008420,KR7008420002,문배철강,0,1
A008490,KR7008490005,서흥,0,1
A008500,KR7008500001,일정실업,0,1
A008560,KR7008560005,메리츠종금증권,0,1
A008600,KR7008600009,윌비스,0,1
A008700,KR7008700007,아남전자,0,1
A008730,KR7008730004,율촌화학,0,1
A008770,KR7008770000,호텔신라,0,1
A008775,KR7008771008,호텔신라우,0,1
A008870,KR7008870008,금비,0,1
A008900,KR7008900003,티이씨앤코,0,1
A008930,KR7008930000,한미사이언스,0,1
A008970,KR7008970006,동양철관,0,1
A009070,KR7009070004,KCTC,0,1
A009140,KR7009140005,경인전자,0,1
A009150,KR7009150004,삼성전기,0,1
A009155,KR7009151002,삼성전기우,0,1
A009160,KR7009160003,SIMPAC,0,1
A009180,KR7009180001,한솔로지스틱스,0,1
A009190,KR7009190000,대양금속,0,1
A009200,KR7009200007,무림페이퍼,0,1
A009240,KR7009240003,한샘,0,1
A009270,KR7009270000,신원,0,1
A009275,KR7009271008,신원우,0,1
A009290,KR7009290008,광동제약,0,1
A009310,KR7009310004,참엔지니어링,0,1
A009320,KR7009320003,대우부품,0,1
A009410,KR7009410002,태영건설,0,1
A009415,KR7009411000,태영건설우,0,1
A009420,KR7009420001,한올바이오파마,0,1
A009440,KR7009440009,KC그린홀딩스,0,1
A009450,KR7009450008,경동나비엔,0,1
A009460,KR7009460007,한창제지,0,1
A009470,KR7009470006,삼화전기,0,1
A009540,KR7009540006,현대중공업,0,1
A009580,KR7009580002,무림P&P,0,1
A009680,KR7009680000,모토닉,0,1
A009770,KR7009770009,삼정펄프,0,1
A009810,KR7009810003,고려포리머,0,1
A009830,KR7009830001,한화케미칼,0,1
A009835,KR7009831009,한화케미칼우,0,1
A009970,KR7009970005,영원무역홀딩스,0,1
A010040,KR7010040004,한국내화,0,1
A010050,KR7010050003,우리종금,0,1
A010060,KR7010060002,OCI,0,1
A010100,KR7010100006,한국프랜지,0,1
A010120,KR7010120004,LS산전,0,1
A010130,KR7010130003,고려아연,0,1
A010140,KR7010140002,삼성중공업,0,1
A010145,KR7010141000,삼성중공우,0,1
A010420,KR7010420008,한솔PNS,0,1
A010580,KR7010580009,지코,0,1
A010600,KR7010600005,와이비로드,0,1
A010620,KR7010620003,현대미포조선,0,1
A010640,KR7010640001,진양폴리,0,1
A010660,KR7010660009,화천기계,0,1
A010690,KR7010690006,화신,0,1
A010770,KR7010770006,평화홀딩스,0,1
A010780,KR7010780005,아이에스동서,0,1
A010820,KR7010820009,퍼스텍,0,1
A010950,KR7010950004,S-Oil,0,1
A010955,KR7010951002,S-Oil우,0,1
A010960,KR7010960003,삼호개발,0,1
A011000,KR7011000007,진원생명과학,0,1
A011070,KR7011070000,LG이노텍,0,1
A011090,KR7011090008,에넥스,0,1
A011150,KR7011150000,CJ씨푸드,0,1
A011155,KR7011151008,CJ씨푸드1우,0,1
A011160,KR7011160009,두산건설,0,1
A011170,KR7011170008,롯데케미칼,0,1
A011200,KR7011200003,현대상선,0,1
A011210,KR7011210002,현대위아,0,1
A011230,KR7011230000,삼화전자,0,1
A011280,KR7011280005,태림포장,0,1
A011300,KR7011300001,성안,0,1
A011330,KR7011330008,유니켐,0,1
A011390,KR7011390002,부산산업,0,1
A011420,KR7011420007,IB월드와이드,0,1
A011500,KR7011500006,한농화성,0,1
A011690,KR7011690005,유양디앤유,0,1
A011700,KR7011700002,한신기계,0,1
A011720,KR7011720000,현대페인트,0,1
A011760,KR7011760006,현대상사,0,1
A011780,KR7011780004,금호석유,0,1
A011785,KR7011781002,금호석유우,0,1
A011790,KR7011790003,SKC,0,1
A011810,KR7011810009,STX,0,1
A011930,KR7011930005,신성솔라에너지,0,1
A012030,KR7012030003,동부,0,1
A012160,KR7012160008,영흥철강,0,1
A012170,KR7012170007,키스톤글로벌,0,1
A012200,KR7012200002,계양전기,0,1
A012205,KR7012201000,계양전기우,0,1
A012280,KR7012280004,영화금속,0,1
A012320,KR7012320008,경동가스,0,1
A012330,KR7012330007,현대모비스,0,1
A012450,KR7012450003,한화테크윈,0,1
A012510,KR7012510004,더존비즈온,0,1
A012600,KR7012600003,청호컴넷,0,1
A012610,KR7012610002,경인양행,0,1
A012630,KR7012630000,현대산업,0,1
A012690,KR7012690004,모나리자,0,1
A012750,KR7012750006,에스원,0,1
A012800,KR7012800009,대창,0,1
A013000,KR7013000005,세우글로벌,0,1
A013360,KR7013360003,일성건설,0,1
A013367,KR7013362009,일성건설2우B,0,1
A013520,KR7013520002,화승알앤에이,0,1
A013570,KR7013570007,디와이,0,1
A013580,KR7013580006,계룡건설,0,1
A013700,KR7013700000,삼환까뮤,0,1
A013870,KR7013870001,지엠비코리아,0,1
A014130,KR7014130009,한익스프레스,0,1
A014160,KR7014160006,대영포장,0,1
A014280,KR7014280002,금강공업,0,1
A014285,KR7014281000,금강공업우,0,1
A014440,KR7014440002,영보화학,0,1
A014530,KR7014530000,극동유화,0,1
A014580,KR7014580005,백광소재,0,1
A014680,KR7014680003,한솔케미칼,0,1
A014710,KR7014710008,사조씨푸드,0,1
A014790,KR7014790000,한라,0,1
A014820,KR7014820005,동원시스템즈,0,1
A014825,KR7014821003,동원시스템즈우,0,1
A014830,KR7014830004,유니드,0,1
A014910,KR7014910004,성문전자,0,1
A014915,KR7014911002,성문전자우,0,1
A014990,KR7014990006,인디에프,0,1
A015020,KR7015020001,이스타코,0,1
A015230,KR7015230006,대창단조,0,1
A015260,KR7015260003,에이엔피,0,1
A015350,KR7015350002,부산가스,0,1
A015360,KR7015360001,예스코,0,1
A015540,KR7015540008,핫텍,0,1
A015590,KR7015590003,대경기계,0,1
A015760,KR7015760002,한국전력,0,1
A015860,KR7015860000,일진홀딩스,0,1
A015890,KR7015890007,태경산업,0,1
A016090,KR7016090003,대현,0,1
A016360,KR7016360000,삼성증권,0,1
A016380,KR7016380008,동부제철,0,1
A016385,KR7016381006,동부제철우,0,1
A016450,KR7016450009,한세예스24홀딩스,0,1
A016580,KR7016580003,환인제약,0,1
A016590,KR7016590002,신대양제지,0,1
A016610,KR7016610008,동부증권,0,1
A016710,KR7016710006,대성홀딩스,0,1
A016800,KR7016800005,퍼시스,0,1
A016880,KR7016880007,웅진,0,1
A017040,KR7017040007,광명전기,0,1
A017180,KR7017180001,명문제약,0,1
A017370,KR7017370008,우신시스템,0,1
A017390,KR7017390006,서울가스,0,1
A017550,KR7017550005,수산중공업,0,1
A017670,KR7017670001,SK텔레콤,0,1
A017800,KR7017800004,현대엘리베이,0,1
A017810,KR7017810003,풀무원,0,1
A017900,KR7017900002,광전자,0,1
A017940,KR7017940008,E1,0,1
A017960,KR7017960006,한국카본,0,1
A018260,KR7018260000,삼성에스디에스,0,1
A018470,KR7018470005,조일알미늄,0,1
A018500,KR7018500009,동원금속,0,1
A018670,KR7018670000,SK가스,0,1
A018880,KR7018880005,한온시스템,0,1
A019170,KR7019170000,신풍제약,0,1
A019175,KR7019171008,신풍제약우,0,1
A019180,KR7019180009,티에이치엔,0,1
A019300,KR7019300003,동일제지,0,1
A019440,KR7019440007,세아특수강,0,1
A019490,KR7019490002,하이트론,0,1
A019680,KR7019680008,대교,0,1
A019685,KR7019681006,대교우B,0,1
A020000,KR7020000006,한섬,0,1
A020120,KR7020120002,다우인큐브,0,1
A020150,KR7020150009,일진머티리얼즈,0,1
A020560,KR7020560009,아시아나항공,0,1
A020760,KR7020760005,일진디스플,0,1
A021050,KR7021050000,서원,0,1
A021240,KR7021240007,코웨이,0,1
A021820,KR7021820006,세원정공,0,1
A021960,KR7021960000,케이비캐피탈,0,1
A023000,KR7023000003,삼원강재,0,1
A023150,KR7023150006,MH에탄올,0,1
A023350,KR7023350002,한국종합기술,0,1
A023450,KR7023450000,동남합성,0,1
A023530,KR7023530009,롯데쇼핑,0,1
A023590,KR7023590003,다우기술,0,1
A023800,KR7023800006,인지컨트롤스,0,1
A023960,KR7023960008,에쓰씨엔지니어링,0,1
A024070,KR7024070005,WISCOM,0,1
A024090,KR7024090003,디씨엠,0,1
A024110,KR7024110009,기업은행,0,1
A024720,KR7024720005,한국콜마홀딩스,0,1
A024890,KR7024890006,대원화성,0,1
A024900,KR7024900003,덕양산업,0,1
A025000,KR7025000001,KPX케미칼,0,1
A025530,KR7025530007,SJM홀딩스,0,1
A025540,KR7025540006,한국단자,0,1
A025560,KR7025560004,미래산업,0,1
A025620,KR7025620006,신우,0,1
A025750,KR7025750001,한솔홈데코,0,1
A025820,KR7025820002,이구산업,0,1
A025850,KR7025850009,한화화인케미칼,0,1
A025860,KR7025860008,남해화학,0,1
A025890,KR7025890005,한국주강,0,1
A026890,KR7026890004,디피씨,0,1
A026940,KR7026940007,부국철강,0,1
A027390,KR7027390004,한화갤러리아타임월드,0,1
A027410,KR7027410000,BGF리테일,0,1
A027740,KR7027740000,마니커,0,1
A027970,KR7027970003,세하,0,1
A028050,KR7028050003,삼성엔지니어링,0,1
A028100,KR7028100006,동아지질,0,1
A028260,KR7028260008,제일모직,0,1
A028670,KR7028670008,팬오션,0,1
A029460,KR7029460003,케이씨텍,0,1
A029530,KR7029530003,신도리코,0,1
A029780,KR7029780004,삼성카드,0,1
A030000,KR7030000004,제일기획,0,1
A030200,KR7030200000,KT,0,1
A030210,KR7030210009,KTB투자증권,0,1
A030610,KR7030610000,교보증권,0,1
A030720,KR7030720007,동원수산,0,1
A030790,KR7030790000,동양네트웍스,0,1
A031430,KR7031430002,신세계인터내셔날,0,1
A031440,KR7031440001,신세계푸드,0,1
A031820,KR7031820004,콤텍시스템,0,1
A032350,KR7032350001,롯데관광개발,0,1
A032560,KR7032560005,황금에스티,0,1
A032640,KR7032640005,LG유플러스,0,1
A032830,KR7032830002,삼성생명,0,1
A033180,KR7033180001,필룩스,0,1
A033240,KR7033240003,자화전자,0,1
A033250,KR7033250002,체시스,0,1
A033270,KR7033270000,유나이티드제약,0,1
A033530,KR7033530007,세종공업,0,1
A033660,KR7033660002,아주캐피탈,0,1
A033780,KR7033780008,KT&G,0,1
A033920,KR7033920000,무학,0,1
A034020,KR7034020008,두산중공업,0,1
A034120,KR7034120006,SBS,0,1
A034220,KR7034220004,LG디스플레이,0,1
A034300,KR7034300004,신세계건설,0,1
A034310,KR7034310003,NICE,0,1
A034590,KR7034590000,인천도시가스,0,1
A034730,KR7034730002,SK,0,1
A035000,KR7035000009,GⅡR,0,1
A035150,KR7035150002,백산,0,1
A035250,KR7035250000,강원랜드,0,1
A035420,KR7035420009,NAVER,0,1
A035510,KR7035510007,신세계 I&C,0,1
A036460,KR7036460004,한국가스공사,0,1
A036530,KR7036530004,S&T홀딩스,0,1
A036570,KR7036570000,엔씨소프트,0,1
A036580,KR7036580009,팜스코,0,1
A037270,KR7037270006,YG PLUS,0,1
A037560,KR7037560000,CJ헬로비전,0,1
A037620,KR7037620002,미래에셋증권,0,1
A037710,KR7037710001,광주신세계,0,1
A039130,KR7039130000,하나투어,0,1
A039490,KR7039490008,키움증권,0,1
A041650,KR7041650003,상신브레이크,0,1
A042660,KR7042660001,대우조선해양,0,1
A042670,KR7042670000,두산인프라코어,0,1
A042700,KR7042700005,한미반도체,0,1
A044380,KR7044380004,주연테크,0,1
A044450,KR7044450005,KSS해운,0,1
A044820,KR7044820009,코스맥스비티아이,0,1
A047040,KR7047040001,대우건설,0,1
A047050,KR7047050000,대우인터내셔널,0,1
A047400,KR7047400007,쌍용머티리얼,0,1
A047810,KR7047810007,한국항공우주,0,1
A049770,KR7049770001,동원F&B,0,1
A049800,KR7049800006,우진플라임,0,1
A051310,KR7051310001,포스코플랜텍,0,1
A051600,KR7051600005,한전KPS,0,1
A051630,KR7051630002,진양화학,0,1
A051900,KR7051900009,LG생활건강,0,1
A051905,KR7051901007,LG생활건강우,0,1
A051910,KR7051910008,LG화학,0,1
A051915,KR7051911006,LG화학우,0,1
A052690,KR7052690005,한전기술,0,1
A053210,KR7053210001,스카이라이프,0,1
A053690,KR7053690004,한미글로벌,0,1
A055550,KR7055550008,신한지주,0,1
A057050,KR7057050007,현대홈쇼핑,0,1
A058430,KR7058430000,포스코강판,0,1
A058650,KR7058650003,세아홀딩스,0,1
A058730,KR7058730003,동아에스텍,0,1
A058850,KR7058850009,KTcs,0,1
A058860,KR7058860008,케이티스,0,1
A060980,KR7060980000,한라홀딩스,0,1
A063160,KR7063160006,종근당바이오,0,1
A064350,KR7064350002,현대로템,0,1
A064960,KR7064960008,S&T모티브,0,1
A066570,KR7066570003,LG전자,0,1
A066575,KR7066571001,LG전자우,0,1
A067830,KR7067830000,세이브존I&C,0,1
A068290,KR7068290006,삼성출판사,0,1
A068400,KR7068400001,AJ렌터카,0,1
A068870,KR7068870005,LG생명과학,0,1
A068875,KR7068871003,LG생명과학우,0,1
A069260,KR7069260008,휴켐스,0,1
A069460,KR7069460004,대호에이엘,0,1
A069620,KR7069620003,대웅제약,0,1
A069640,KR7069640001,엠케이트렌드,0,1
A069730,KR7069730000,DSR제강,0,1
A069960,KR7069960003,현대백화점,0,1
A071050,KR7071050009,한국금융지주,0,1
A071055,KR7071051007,한국금융지주우,0,1
A071090,KR7071090005,하이스틸,0,1
A071320,KR7071320006,지역난방공사,0,1
A071840,KR7071840003,롯데하이마트,0,1
A071950,KR7071950000,코아스,0,1
A071970,KR7071970008,STX중공업,0,1
A072130,KR7072130008,유엔젤,0,1
A072710,KR7072710007,농심홀딩스,0,1
A073240,KR7073240004,금호타이어,0,1
A074610,KR7074610007,이엔쓰리,0,1
A075180,KR7075180000,새론오토모티브,0,1
A077500,KR7077500007,유니퀘스트,0,1
A077970,KR7077970002,STX엔진,0,1
A078000,KR7078000007,텔코웨어,0,1
A078520,KR7078520004,에이블씨엔씨,0,1
A078930,KR7078930005,GS,0,1
A078935,KR7078931003,GS우,0,1
A079160,KR7079160008,CJ CGV,0,1
A079430,KR7079430005,현대리바트,0,1
A079660,KR7079660007,사조해표,0,1
A079980,KR7079980009,휴비스,0,1
A081000,KR7081000002,일진다이아,0,1
A081660,KR7081660003,휠라코리아,0,1
A082640,KR7082640004,동양생명,0,1
A082740,KR7082740002,두산엔진,0,1
A083420,KR7083420000,KPX그린케미칼,0,1
A084010,KR7084010008,대한제강,0,1
A084670,KR7084670009,동양고속,0,1
A084680,KR7084680008,이월드,0,1
A084690,KR7084690007,대상홀딩스,0,1
A084695,KR7084691005,대상홀딩스우,0,1
A084870,KR7084870005,베이직하우스,0,1
A085310,KR7085310001,엔케이,0,1
A085620,KR7085620003,미래에셋생명,0,1
A086280,KR7086280005,현대글로비스,0,1
A086790,KR7086790003,하나금융지주,0,1
A088350,KR7088350004,한화생명,0,1
A088790,KR7088790001,진도,0,1
A088980,KR7088980008,맥쿼리인프라,0,1
A089470,KR7089470009,현대EP,0,1
A090080,KR7090080003,평화산업,0,1
A090350,KR7090350000,노루페인트,0,1
A090355,KR7090351008,노루페인트우,0,1
A090370,KR7090370008,아비스타,0,1
A090430,KR7090430000,아모레퍼시픽,0,1
A090435,KR7090431008,아모레퍼시픽우,0,1
A091090,KR7091090001,세원셀론텍,0,1
A092200,KR7092200005,디아이씨,0,1
A092220,KR7092220003,KEC,0,1
A092230,KR7092230002,KPX홀딩스,0,1
A092440,KR7092440007,기신정기,0,1
A093050,KR7093050003,LF,0,1
A093230,KR7093230001,이아이디,0,1
A093240,KR7093240000,에리트베이직,0,1
A093370,KR7093370005,후성,0,1
A094280,KR7094280005,효성ITX,0,1
A094800,KR7094800000,맵스리얼티1,0,1
A095570,KR7095570008,AJ네트웍스,0,1
A095720,KR7095720009,웅진씽크빅,0,1
A096300,KR7096300009,베트남개발1,0,1
A096760,KR7096760004,JW홀딩스,0,1
A096770,KR7096770003,SK이노베이션,0,1
A096775,KR7096771001,SK이노베이션우,0,1
A097230,KR7097230007,한진중공업,0,1
A097950,KR7097950000,CJ제일제당,0,1
A097955,KR7097951008,CJ제일제당 우,0,1
A100220,KR7100220003,비상교육,0,1
A100250,KR7100250000,진양홀딩스,0,1
A100840,KR7100840008,S&TC,0,1
A101060,KR7101060002,SBS미디어홀딩스,0,1
A101140,KR7101140002,아티스,0,1
A102260,KR7102260007,동성코퍼레이션,0,1
A102280,KR7102280005,쌍방울,0,1
A102460,KR7102460003,이연제약,0,1
A103130,KR7103130001,웅진에너지,0,1
A103140,KR7103140000,풍산,0,1
A103590,KR7103590006,일진전기,0,1
A104110,KR7104110002,신성이엔지,0,1
A104120,KR7104120001,신성에프에이,0,1
A104700,KR7104700000,한국철강,0,1
A105560,KR7105560007,KB금융,0,1
A105630,KR7105630008,한세실업,0,1
A105840,KR7105840003,우진,0,1
A107590,KR7107590002,미원에스씨,0,1
A108670,KR7108670001,LG하우시스,0,1
A108675,KR7108671009,LG하우시스우,0,1
A109070,KR7109070003,KGP,0,1
A110570,KR7110570009,넥솔론,0,1
A111770,KR7111770004,영원무역,0,1
A112610,KR7112610001,씨에스윈드,0,1
A114090,KR7114090004,GKL,0,1
A115390,KR7115390007,락앤락,0,1
A117580,KR7117580001,대성에너지,0,1
A117930,KR7117930008,한진해운,0,1
A118000,KR7118000009,우리들휴브레인,0,1
A119650,KR7119650000,KC코트렐,0,1
A120030,KR7120030002,조선선재,0,1
A120110,KR7120110002,코오롱인더,0,1
A120115,KR7120111000,코오롱인더우,0,1
A122900,KR7122900004,아이마켓코리아,0,1
A123690,KR7123690000,한국화장품,0,1
A123700,KR7123700007,SJM,0,1
A126560,KR7126560002,현대에이치씨엔,0,1
A128820,KR7128820008,대성산업,0,1
A128940,KR7128940004,한미약품,0,1
A129260,KR7129260006,인터지스,0,1
A130660,KR7130660004,한전산업,0,1
A133820,KR7133820001,화인베스틸,0,1
A134380,KR7134380005,미원화학,0,1
A134790,KR7134790005,팀스,0,1
A136490,KR7136490000,선진,0,1
A138040,KR7138040001,메리츠금융지주,0,1
A138250,KR7138250006,엔에스쇼핑,0,1
A138440,KR7138440003,이코리아리츠,0,1
A138490,KR7138490008,코오롱플라스틱,0,1
A138930,KR7138930003,BNK금융지주,0,1
A139130,KR7139130009,DGB금융지주,0,1
A139480,KR7139480008,이마트,0,1
A140910,KR7140910001,광희리츠,0,1
A144620,KR7144620002,코오롱머티리얼,0,1
A145210,KR7145210001,세화아이엠씨,0,1
A145270,KR7145270005,케이탑리츠,0,1
A145990,KR7145990008,삼양사,0,1
A145995,KR7145991006,삼양사우,0,1
A152550,KR7152550000,한국ANKOR유전,0,1
A155660,KR7155660004,DSR,0,1
A161000,KR7161000005,애경유화,0,1
A161390,KR7161390000,한국타이어,0,1
A161890,KR7161890009,한국콜마,0,1
A163560,KR7163560006,동일고무벨트,0,1
A168490,KR7168490001,한국패러랠,0,1
A170900,KR7170900005,동아에스티,0,1
A175330,KR7175330000,JB금융지주,0,1
A180640,KR7180640005,한진칼,0,1
A18064K,KR718064K016,한진칼우,0,1
A181710,KR7181710005,NHN엔터테인먼트,0,1
A183190,KR7183190008,아세아시멘트,0,1
A185750,KR7185750007,종근당,0,1
A192400,KR7192400000,쿠쿠전자,0,1
A192530,KR7192530004,광주은행,0,1
A192820,KR7192820009,코스맥스,0,1
A200880,KR7200880003,한일이화,0,1
A204320,KR7204320006,만도,0,1
A210540,KR7210540001,디와이파워,0,1
A210980,KR7210980009,에스케이디앤디,0,1
A213500,KR7213500002,한솔제지,0,1
A214320,KR7214320004,이노션,0,1
A214390,KR7214390007,경보제약,0,1
A214420,KR7214420002,토니모리,0,1
A900050,HK0000050325,중국원양자원,0,1
A900140,KYG5307W1015,코라오홀딩스,0,1
A950010,KR8136010004,평산차업 KDR,0,1
A000250,KR7000250001,삼천당제약,0,2
A000440,KR7000440008,중앙에너비스,0,2
A001000,KR7001000009,신라섬유,0,2
A001540,KR7001540004,안국약품,0,2
A001810,KR7001810001,무림SP,0,2
A001840,KR7001840008,이화공영,0,2
A002230,KR7002230001,피에스텍,0,2
A002290,KR7002290005,삼일기업공사,0,2
A002680,KR7002680007,한탑,0,2
A003100,KR7003100005,선광,0,2
A003310,KR7003310000,대주산업,0,2
A003670,KR7003670007,포스코켐텍,0,2
A003800,KR7003800000,에이스침대,0,2
A004590,KR7004590006,한국가구,0,2
A004650,KR7004650008,창해에탄올,0,2
A004780,KR7004780003,대륙제관,0,2
A005160,KR7005160007,동국산업,0,2
A005290,KR7005290002,동진쎄미켐,0,2
A005670,KR7005670005,푸드웰,0,2
A005710,KR7005710009,대원산업,0,2
A005860,KR7005860002,한일사료,0,2
A005990,KR7005990007,매일유업,0,2
A006050,KR7006050009,국영지앤엠,0,2
A006140,KR7006140008,피제이전자,0,2
A006580,KR7006580005,대양제지,0,2
A006730,KR7006730006,서부T&D,0,2
A006910,KR7006910004,보성파워텍,0,2
A006920,KR7006920003,모헨즈,0,2
A007330,KR7007330004,푸른저축은행,0,2
A007370,KR7007370000,진양제약,0,2
A007390,KR7007390008,네이처셀,0,2
A007530,KR7007530009,영신금속,0,2
A007720,KR7007720006,대명코퍼레이션,0,2
A007770,KR7007770001,한일화학,0,2
A007820,KR7007820004,신흥기계,0,2
A008290,KR7008290009,원풍물산,0,2
A008370,KR7008370009,원풍,0,2
A008470,KR7008470007,부스타,0,2
A008800,KR7008800005,행남자기,0,2
A008830,KR7008830002,대동기어,0,2
A009300,KR7009300005,삼아제약,0,2
A009520,KR7009520008,포스코엠텍,0,2
A009620,KR7009620006,삼보산업,0,2
A009730,KR7009730003,코센,0,2
A009780,KR7009780008,엠에스씨,0,2
A010170,KR7010170009,대한광통신,0,2
A010240,KR7010240000,흥국,0,2
A010280,KR7010280006,쌍용정보통신,0,2
A010470,KR7010470003,오리콤,0,2
A011040,KR7011040003,경동제약,0,2
A011080,KR7011080009,우성I&C,0,2
A011320,KR7011320009,유니크,0,2
A011370,KR7011370004,서한,0,2
A011560,KR7011560000,세보엠이씨,0,2
A012340,KR7012340006,뉴인텍,0,2
A012620,KR7012620001,원일특강,0,2
A012700,KR7012700001,리드코프,0,2
A012790,KR7012790002,신일제약,0,2
A012860,KR7012860003,대동,0,2
A013030,KR7013030002,하이록코리아,0,2
A013120,KR7013120001,동원개발,0,2
A013720,KR7013720008,청보산업,0,2
A013810,KR7013810007,스페코,0,2
A013990,KR7013990007,아가방컴퍼니,0,2
A014100,KR7014100002,보령메디앙스,0,2
A014190,KR7014190003,원익큐브,0,2
A014200,KR7014200000,광림,0,2
A014470,KR7014470009,리홈쿠첸,0,2
A014570,KR7014570006,고려제약,0,2
A014620,KR7014620009,성광벤드,0,2
A014940,KR7014940001,오리엔탈정공,0,2
A014970,KR7014970008,삼륭물산,0,2
A015710,KR7015710007,코콤,0,2
A015750,KR7015750003,성우하이텍,0,2
A016100,KR7016100000,산성앨엔에스,0,2
A016170,KR7016170003,로엔,0,2
A016250,KR7016250003,이테크건설,0,2
A016600,KR7016600009,큐캐피탈,0,2
A016670,KR7016670002,포비스티앤씨,0,2
A016920,KR7016920001,카스,0,2
A017000,KR7017000001,신원종합개발,0,2
A017250,KR7017250002,인터엠,0,2
A017480,KR7017480005,삼현철강,0,2
A017510,KR7017510009,세명전기,0,2
A017650,KR7017650003,대림제지,0,2
A017680,KR7017680000,데코앤이,0,2
A017890,KR7017890005,한국알콜,0,2
A018000,KR7018000000,유니슨,0,2
A018120,KR7018120006,진로발효,0,2
A018290,KR7018290007,지엠피,0,2
A018310,KR7018310003,삼목에스폼,0,2
A018620,KR7018620005,우진비앤지,0,2
A018680,KR7018680009,서울제약,0,2
A018700,KR7018700005,바른손,0,2
A019010,KR7019010008,그랜드백화점,0,2
A019210,KR7019210004,와이지-원,0,2
A019540,KR7019540004,일지테크,0,2
A019550,KR7019550003,SBI인베스트먼트,0,2
A019570,KR7019570001,제미니투자,0,2
A019590,KR7019590009,엠벤처투자,0,2
A019660,KR7019660000,베리타스,0,2
A019770,KR7019770007,탑금속,0,2
A019990,KR7019990001,에너토크,0,2
A020180,KR7020180006,대신정보통신,0,2
A020400,KR7020400008,대동금속,0,2
A020710,KR7020710000,시공테크,0,2
A021040,KR7021040001,대호피앤씨,0,2
A021045,KR7021041009,대호피앤씨우,0,2
A021080,KR7021080007,에이티넘인베스트,0,2
A021320,KR7021320007,KCC건설,0,2
A021650,KR7021650007,한국큐빅,0,2
A021880,KR7021880000,씨엑스씨종합캐피탈,0,2
A022100,KR7022100002,포스코 ICT,0,2
A022220,KR7022220008,애강리메텍,0,2
A023160,KR7023160005,태광,0,2
A023410,KR7023410004,유진기업,0,2
A023430,KR7023430002,인테그레이티드에너지,0,2
A023440,KR7023440001,제일제강,0,2
A023460,KR7023460009,CNH,0,2
A023600,KR7023600000,삼보판지,0,2
A023760,KR7023760002,한국캐피탈,0,2
A023770,KR7023770001,플레이위드,0,2
A023790,KR7023790009,동일철강,0,2
A023890,KR7023890007,아트라스BX,0,2
A023900,KR7023900004,풍국주정,0,2
A023910,KR7023910003,대한약품,0,2
A024060,KR7024060006,흥구석유,0,2
A024120,KR7024120008,KB오토시스,0,2
A024660,KR7024660003,하림홀딩스,0,2
A024740,KR7024740003,한일단조,0,2
A024800,KR7024800005,유성티엔에스,0,2
A024810,KR7024810004,이화전기,0,2
A024830,KR7024830002,세원물산,0,2
A024840,KR7024840001,갑을메탈,0,2
A024850,KR7024850000,피에스엠씨,0,2
A024880,KR7024880007,케이피에프,0,2
A024910,KR7024910002,경창산업,0,2
A024940,KR7024940009,PN풍년,0,2
A024950,KR7024950008,삼천리자전거,0,2
A025270,KR7025270000,부산방직,0,2
A025320,KR7025320003,시노펙스,0,2
A025440,KR7025440009,대성엘텍,0,2
A025550,KR7025550005,한국선재,0,2
A025770,KR7025770009,한국정보통신,0,2
A025870,KR7025870007,신라에스지,0,2
A025880,KR7025880006,케이씨피드,0,2
A025900,KR7025900002,동화기업,0,2
A025950,KR7025950007,동신건설,0,2
A025980,KR7025980004,에머슨퍼시픽,0,2
A026040,KR7026040006,로만손,0,2
A026150,KR7026150003,특수건설,0,2
A026180,KR7026180000,현대정보기술,0,2
A026260,KR7026260000,보타바이오,0,2
A026910,KR7026910000,광진실업,0,2
A026960,KR7026960005,동서,0,2
A027040,KR7027040005,서울전자통신,0,2
A027050,KR7027050004,코리아나,0,2
A027580,KR7027580000,상보,0,2
A027710,KR7027710003,팜스토리,0,2
A027830,KR7027830009,대성창투,0,2
A028040,KR7028040004,파캔OPC,0,2
A028080,KR7028080000,휴맥스홀딩스,0,2
A028150,KR7028150001,GS홈쇼핑,0,2
A028300,KR7028300002,에이치엘비,0,2
A029480,KR7029480001,케이디씨,0,2
A029960,KR7029960002,코엔텍,0,2
A030190,KR7030190003,NICE평가정보,0,2
A030270,KR7030270003,가희,0,2
A030350,KR7030350003,드래곤플라이,0,2
A030520,KR7030520001,한글과컴퓨터,0,2
A030530,KR7030530000,원익IPS,0,2
A030960,KR7030960009,양지사,0,2
A031310,KR7031310006,아이즈비전,0,2
A031330,KR7031330004,에스에이엠티,0,2
A031390,KR7031390008,녹십자셀,0,2
A031510,KR7031510001,오스템,0,2
A031860,KR7031860000,에이모션,0,2
A031980,KR7031980006,피에스케이,0,2
A032040,KR7032040008,C&S자산관리,0,2
A032080,KR7032080004,아즈텍WB,0,2
A032190,KR7032190001,다우데이타,0,2
A032280,KR7032280000,삼일,0,2
A032500,KR7032500001,케이엠더블유,0,2
A032540,KR7032540007,TJ미디어,0,2
A032580,KR7032580003,피델릭스,0,2
A032620,KR7032620007,유비케어,0,2
A032680,KR7032680001,소프트센,0,2
A032685,KR7032681009,소프트센우,0,2
A032750,KR7032750002,삼진,0,2
A032790,KR7032790008,엠젠,0,2
A032800,KR7032800005,판타지오,0,2
A032820,KR7032820003,우리기술,0,2
A032850,KR7032850000,비트컴퓨터,0,2
A032860,KR7032860009,스틸앤리소시즈,0,2
A032940,KR7032940009,원익,0,2
A032960,KR7032960007,동일기연,0,2
A032980,KR7032980005,폴리비전,0,2
A033050,KR7033050006,제이엠아이,0,2
A033100,KR7033100009,제룡전기,0,2
A033110,KR7033110008,이디,0,2
A033130,KR7033130006,디지틀조선,0,2
A033160,KR7033160003,엠케이전자,0,2
A033170,KR7033170002,시그네틱스,0,2
A033200,KR7033200007,모아텍,0,2
A033230,KR7033230004,인성정보,0,2
A033290,KR7033290008,코웰패션,0,2
A033310,KR7033310004,디케이디앤아이,0,2
A033320,KR7033320003,제이씨현시스템,0,2
A033340,KR7033340001,좋은사람들,0,2
A033430,KR7033430000,한국자원투자개발,0,2
A033500,KR7033500000,동성화인텍,0,2
A033540,KR7033540006,파라텍,0,2
A033560,KR7033560004,블루콤,0,2
A033600,KR7033600008,이젠텍,0,2
A033640,KR7033640004,네패스,0,2
A033790,KR7033790007,서화정보통신,0,2
A033830,KR7033830001,티비씨,0,2
A034230,KR7034230003,파라다이스,0,2
A034810,KR7034810002,해성산업,0,2
A034830,KR7034830000,한국토지신탁,0,2
A034940,KR7034940007,조아제약,0,2
A034950,KR7034950006,한국기업평가,0,2
A035080,KR7035080001,인터파크홀딩스,0,2
A035200,KR7035200005,프럼파스트,0,2
A035290,KR7035290006,에듀박스,0,2
A035460,KR7035460005,기산텔레콤,0,2
A035480,KR7035480003,마제스타,0,2
A035600,KR7035600006,KG이니시스,0,2
A035610,KR7035610005,솔본,0,2
A035620,KR7035620004,바른손이앤에이,0,2
A035720,KR7035720002,다음카카오,0,2
A035760,KR7035760008,CJ오쇼핑,0,2
A035810,KR7035810001,이지바이오,0,2
A035890,KR7035890003,서희건설,0,2
A035900,KR7035900000,JYP Ent.,0,2
A036000,KR7036000008,예림당,0,2
A036010,KR7036010007,아비코전자,0,2
A036030,KR7036030005,KTH,0,2
A036090,KR7036090009,위지트,0,2
A036120,KR7036120004,서울신용평가,0,2
A036170,KR7036170009,씨티엘,0,2
A036180,KR7036180008,영인프런티어,0,2
A036190,KR7036190007,금화피에스시,0,2
A036200,KR7036200004,유니셈,0,2
A036220,KR7036220002,인포피아,0,2
A036260,KR7036260008,웰메이드예당,0,2
A036420,KR7036420008,제이콘텐트리,0,2
A036480,KR7036480002,대성미생물,0,2
A036490,KR7036490001,OCI머티리얼즈,0,2
A036500,KR7036500007,유원컴텍,0,2
A036540,KR7036540003,STS반도체,0,2
A036560,KR7036560001,영풍정밀,0,2
A036620,KR7036620003,버추얼텍,0,2
A036630,KR7036630002,세종텔레콤,0,2
A036640,KR7036640001,HRS,0,2
A036670,KR7036670008,KCI,0,2
A036690,KR7036690006,코맥스,0,2
A036710,KR7036710002,심텍홀딩스,0,2
A036800,KR7036800001,나이스정보통신,0,2
A036810,KR7036810000,에프에스티,0,2
A036830,KR7036830008,솔브레인,0,2
A036890,KR7036890002,진성티이씨,0,2
A036930,KR7036930006,주성엔지니어링,0,2
A037070,KR7037070000,파세코,0,2
A037230,KR7037230000,한국팩키지,0,2
A037330,KR7037330008,인지디스플레,0,2
A037340,KR7037340007,네오이녹스엔모크스,0,2
A037350,KR7037350006,성도이엔지,0,2
A037370,KR7037370004,EG,0,2
A037400,KR7037400009,우리조명,0,2
A037440,KR7037440005,희림,0,2
A037460,KR7037460003,삼지전자,0,2
A037760,KR7037760006,쎄니트,0,2
A037950,KR7037950003,엘컴텍,0,2
A038010,KR7038010005,제일테크노스,0,2
A038060,KR7038060000,루멘스,0,2
A038070,KR7038070009,서린바이오,0,2
A038110,KR7038110003,에코플라스틱,0,2
A038290,KR7038290003,마크로젠,0,2
A038340,KR7038340006,리젠,0,2
A038390,KR7038390001,레드캡투어,0,2
A038460,KR7038460002,바이오스마트,0,2
A038500,KR7038500005,동양시멘트,0,2
A038530,KR7038530002,코아크로스,0,2
A038540,KR7038540001,텍셀네트컴,0,2
A038620,KR7038620001,위즈코프,0,2
A038680,KR7038680005,에스넷,0,2
A038870,KR7038870002,에코에너지,0,2
A038880,KR7038880001,아이에이,0,2
A038950,KR7038950002,파인디지털,0,2
A039010,KR7039010004,현대통신,0,2
A039030,KR7039030002,이오테크닉스,0,2
A039200,KR7039200001,오스코텍,0,2
A039230,KR7039230008,솔브레인이엔지,0,2
A039240,KR7039240007,경남스틸,0,2
A039290,KR7039290002,인포뱅크,0,2
A039310,KR7039310008,세중,0,2
A039340,KR7039340005,한국경제TV,0,2
A039420,KR7039420005,케이엘넷,0,2
A039440,KR7039440003,에스티아이,0,2
A039560,KR7039560008,다산네트웍스,0,2
A039610,KR7039610001,화성,0,2
A039670,KR7039670005,스포츠서울,0,2
A039740,KR7039740006,한국정보공학,0,2
A039790,KR7039790001,위노바,0,2
A039830,KR7039830005,오로라,0,2
A039840,KR7039840004,디오,0,2
A039860,KR7039860002,나노엔텍,0,2
A039980,KR7039980008,리노스,0,2
A040160,KR7040160004,누리텔레콤,0,2
A040300,KR7040300006,YTN,0,2
A040350,KR7040350001,큐로컴,0,2
A040420,KR7040420002,정상제이엘에스,0,2
A040610,KR7040610008,SG&G,0,2
A040910,KR7040910002,아이씨디,0,2
A041020,KR7041020009,인프라웨어,0,2
A041140,KR7041140005,넥슨지티,0,2
A041190,KR7041190000,우리기술투자,0,2
A041440,KR7041440009,에버다임,0,2
A041460,KR7041460007,한국전자인증,0,2
A041510,KR7041510009,에스엠,0,2
A041520,KR7041520008,이라이콤,0,2
A041590,KR7041590001,젬백스테크놀러지,0,2
A041830,KR7041830001,인바디,0,2
A041910,KR7041910001,에스텍파마,0,2
A041920,KR7041920000,메디아나,0,2
A041930,KR7041930009,동아화성,0,2
A041960,KR7041960006,코미팜,0,2
A042040,KR7042040006,케이피엠테크,0,2
A042110,KR7042110007,에스씨디,0,2
A042370,KR7042370007,비츠로테크,0,2
A042420,KR7042420000,네오위즈홀딩스,0,2
A042500,KR7042500009,링네트,0,2
A042510,KR7042510008,라온시큐어,0,2
A042520,KR7042520007,한스바이오메드,0,2
A042600,KR7042600007,새로닉스,0,2
A042940,KR7042940007,르네코,0,2
A043090,KR7043090000,팜스웰바이오,0,2
A043100,KR7043100007,솔고바이오,0,2
A043150,KR7043150002,바텍,0,2
A043200,KR7043200005,파루,0,2
A043220,KR7043220003,위드윈네트웍,0,2
A043260,KR7043260009,성호전자,0,2
A043290,KR7043290006,케이맥,0,2
A043340,KR7043340009,에쎈테크,0,2
A043360,KR7043360007,디지아이,0,2
A043370,KR7043370006,평화정공,0,2
A043580,KR7043580000,에임하이,0,2
A043590,KR7043590009,크로바하이텍,0,2
A043610,KR7043610005,KT뮤직,0,2
A043650,KR7043650001,국순당,0,2
A043710,KR7043710003,로켓모바일,0,2
A043910,KR7043910009,자연과환경,0,2
A044060,KR7044060002,조광ILI,0,2
A044180,KR7044180008,케이디건설,0,2
A044340,KR7044340008,위닉스,0,2
A044480,KR7044480002,유니더스,0,2
A044490,KR7044490001,태웅,0,2
A044780,KR7044780005,에이치케이,0,2
A044960,KR7044960003,이-글 벳,0,2
A045060,KR7045060001,오공,0,2
A045100,KR7045100005,한양이엔지,0,2
A045300,KR7045300001,성우테크론,0,2
A045340,KR7045340007,토탈소프트,0,2
A045390,KR7045390002,대아티아이,0,2
A045510,KR7045510005,정원엔시스,0,2
A045520,KR7045520004,크린앤사이언스,0,2
A045660,KR7045660008,에이텍,0,2
A045890,KR7045890001,동부라이텍,0,2
A045970,KR7045970001,비에스이,0,2
A046070,KR7046070009,코다코,0,2
A046110,KR7046110003,한일네트웍스,0,2
A046120,KR7046120002,오르비텍,0,2
A046140,KR7046140000,SBS콘텐츠허브,0,2
A046210,KR7046210001,파나진,0,2
A046310,KR7046310009,백금T&A,0,2
A046390,KR7046390001,삼화네트웍스,0,2
A046440,KR7046440004,KG모빌리언스,0,2
A046890,KR7046890000,서울반도체,0,2
A046940,KR7046940003,우원개발,0,2
A046970,KR7046970000,우리로,0,2
A047080,KR7047080007,한빛소프트,0,2
A047310,KR7047310008,파워로직스,0,2
A047440,KR7047440003,레이젠,0,2
A047560,KR7047560008,이스트소프트,0,2
A047770,KR7047770003,코데즈컴바인,0,2
A047820,KR7047820006,초록뱀,0,2
A048260,KR7048260004,오스템임플란트,0,2
A048410,KR7048410005,현대아이비티,0,2
A048430,KR7048430003,유라테크,0,2
A048470,KR7048470009,대동스틸,0,2
A048530,KR7048530000,인트론바이오,0,2
A048550,KR7048550008,SM C&C,0,2
A048770,KR7048770002,TPC,0,2
A048830,KR7048830004,엔피케이,0,2
A048870,KR7048870000,코아로직,0,2
A048910,KR7048910004,대원미디어,0,2
A049070,KR7049070006,인탑스,0,2
A049080,KR7049080005,기가레인,0,2
A049120,KR7049120009,파인디앤씨,0,2
A049180,KR7049180003,셀루메드,0,2
A049430,KR7049430002,코메론,0,2
A049470,KR7049470008,SGA,0,2
A049480,KR7049480007,오픈베이스,0,2
A049520,KR7049520000,유아이엘,0,2
A049550,KR7049550007,잉크테크,0,2
A049630,KR7049630007,재영솔루텍,0,2
A049720,KR7049720006,고려신용정보,0,2
A049830,KR7049830003,승일,0,2
A049950,KR7049950009,미래컴퍼니,0,2
A049960,KR7049960008,쎌바이오텍,0,2
A050090,KR7050090000,휘닉스소재,0,2
A050110,KR7050110006,캠시스,0,2
A050120,KR7050120005,라이브플렉스,0,2
A050320,KR7050320001,아남정보기술,0,2
A050540,KR7050540004,엠피씨,0,2
A050760,KR7050760008,에스폴리텍,0,2
A050860,KR7050860006,아세아텍,0,2
A050890,KR7050890003,쏠리드,0,2
A051160,KR7051160000,지어소프트,0,2
A051170,KR7051170009,썬코어,0,2
A051360,KR7051360006,토비스,0,2
A051370,KR7051370005,인터플렉스,0,2
A051380,KR7051380004,피씨디렉트,0,2
A051390,KR7051390003,YW,0,2
A051490,KR7051490001,나라엠앤디,0,2
A051500,KR7051500007,CJ프레시웨이,0,2
A051780,KR7051780005,큐로홀딩스,0,2
A051980,KR7051980001,SNH,0,2
A052020,KR7052020005,에스티큐브,0,2
A052190,KR7052190006,소프트맥스,0,2
A052220,KR7052220001,iMBC,0,2
A052260,KR7052260007,바이오랜드,0,2
A052270,KR7052270006,우전앤한단,0,2
A052290,KR7052290004,트레이스,0,2
A052300,KR7052300001,SH 홀딩스,0,2
A052330,KR7052330008,코텍,0,2
A052400,KR7052400009,코나아이,0,2
A052420,KR7052420007,오성엘에스티,0,2
A052460,KR7052460003,아이크래프트,0,2
A052600,KR7052600004,한네트,0,2
A052670,KR7052670007,제일바이오,0,2
A052710,KR7052710001,아모텍,0,2
A052770,KR7052770005,와이디온라인,0,2
A052790,KR7052790003,액토즈소프트,0,2
A052860,KR7052860004,아이앤씨,0,2
A052900,KR7052900008,비아이이엠티,0,2
A053030,KR7053030003,바이넥스,0,2
A053050,KR7053050001,지에스이,0,2
A053060,KR7053060000,세동,0,2
A053110,KR7053110003,소리바다,0,2
A053160,KR7053160008,프리엠스,0,2
A053260,KR7053260006,금강철강,0,2
A053270,KR7053270005,구영테크,0,2
A053280,KR7053280004,예스24,0,2
A053290,KR7053290003,능률교육,0,2
A053300,KR7053300000,한국정보인증,0,2
A053350,KR7053350005,이니텍,0,2
A053450,KR7053450003,세코닉스,0,2
A053590,KR7053590006,한국테크놀로지,0,2
A053610,KR7053610002,프로텍,0,2
A053620,KR7053620001,태양,0,2
A053660,KR7053660007,현진소재,0,2
A053700,KR7053700001,삼보모터스,0,2
A053800,KR7053800009,안랩,0,2
A053810,KR7053810008,케이엘티,0,2
A053870,KR7053870002,GT&T,0,2
A053950,KR7053950002,경남제약,0,2
A053980,KR7053980009,오상자이엘,0,2
A054040,KR7054040001,한국컴퓨터,0,2
A054050,KR7054050000,농우바이오,0,2
A054090,KR7054090006,삼진엘앤디,0,2
A054180,KR7054180005,중앙오션,0,2
A054210,KR7054210000,이랜텍,0,2
A054220,KR7054220009,비츠로시스,0,2
A054300,KR7054300009,헤스본,0,2
A054340,KR7054340005,엔알케이,0,2
A054410,KR7054410006,케이피티,0,2
A054450,KR7054450002,텔레칩스,0,2
A054540,KR7054540000,삼영엠텍,0,2
A054620,KR7054620000,AP시스템,0,2
A054630,KR7054630009,에이디칩스,0,2
A054670,KR7054670005,대한뉴팜,0,2
A054780,KR7054780002,키이스트,0,2
A054800,KR7054800008,아이디스홀딩스,0,2
A054920,KR7054920004,소프트포럼,0,2
A054930,KR7054930003,유신,0,2
A054940,KR7054940002,엑사이엔씨,0,2
A054950,KR7054950001,제이브이엠,0,2
A056000,KR7056000003,코원,0,2
A056080,KR7056080005,유진로봇,0,2
A056190,KR7056190002,에스에프에이,0,2
A056360,KR7056360001,코위버,0,2
A056700,KR7056700008,신화인터텍,0,2
A056730,KR7056730005,아큐픽스,0,2
A057030,KR7057030009,YBM시사닷컴,0,2
A057500,KR7057500001,SKC 솔믹스,0,2
A057540,KR7057540007,옴니시스템,0,2
A057680,KR7057680001,옴니텔,0,2
A057880,KR7057880007,토필드,0,2
A058220,KR7058220005,아리온,0,2
A058370,KR7058370008,금성테크,0,2
A058400,KR7058400003,KNN,0,2
A058420,KR7058420001,제이웨이,0,2
A058450,KR7058450008,일야,0,2
A058470,KR7058470006,리노공업,0,2
A058530,KR7058530007,이큐스앤자루,0,2
A058610,KR7058610007,에스피지,0,2
A058630,KR7058630005,엠게임,0,2
A058820,KR7058820002,CMG제약,0,2
A059090,KR7059090001,미코,0,2
A059100,KR7059100008,아이컴포넌트,0,2
A059120,KR7059120006,아진엑스텍,0,2
A059210,KR7059210005,메타바이오메드,0,2
A060150,KR7060150000,인선이엔티,0,2
A060230,KR7060230000,이그잭스,0,2
A060240,KR7060240009,룽투코리아,0,2
A060250,KR7060250008,한국사이버결제,0,2
A060260,KR7060260007,뉴보텍,0,2
A060280,KR7060280005,큐렉소,0,2
A060300,KR7060300001,레드로버,0,2
A060310,KR7060310000,3S,0,2
A060370,KR7060370004,KT서브마린,0,2
A060380,KR7060380003,동양에스텍,0,2
A060480,KR7060480001,국일신동,0,2
A060540,KR7060540002,에스에이티,0,2
A060560,KR7060560000,홈센타,0,2
A060570,KR7060570009,아이리버,0,2
A060590,KR7060590007,씨티씨바이오,0,2
A060720,KR7060720000,KH바텍,0,2
A060900,KR7060900008,퍼시픽바이오,0,2
A060910,KR7060910007,프리젠,0,2
A061040,KR7061040002,알에프텍,0,2
A061250,KR7061250007,화일약품,0,2
A061460,KR7061460002,한진피앤씨,0,2
A061970,KR7061970000,엘비세미콘,0,2
A062860,KR7062860002,티엘아이,0,2
A063080,KR7063080006,게임빌,0,2
A063170,KR7063170005,서울옥션,0,2
A063440,KR7063440002,케이디미디어,0,2
A063570,KR7063570006,한국전자금융,0,2
A064090,KR7064090004,한양하이타오,0,2
A064240,KR7064240005,홈캐스트,0,2
A064260,KR7064260003,다날,0,2
A064290,KR7064290000,인텍플러스,0,2
A064480,KR7064480007,브리지텍,0,2
A064520,KR7064520000,바른전자,0,2
A064550,KR7064550007,바이오니아,0,2
A064760,KR7064760002,티씨케이,0,2
A064800,KR7064800006,필링크,0,2
A064820,KR7064820004,케이프,0,2
A065060,KR7065060006,지엔코,0,2
A065130,KR7065130007,탑엔지니어링,0,2
A065150,KR7065150005,MPK,0,2
A065160,KR7065160004,에프티이앤이,0,2
A065170,KR7065170003,넥스트BT,0,2
A065270,KR7065270001,플렉스컴,0,2
A065350,KR7065350001,신성델타테크,0,2
A065420,KR7065420002,에스아이리소스,0,2
A065440,KR7065440000,이루온,0,2
A065450,KR7065450009,빅텍,0,2
A065500,KR7065500001,오리엔트정공,0,2
A065510,KR7065510000,휴비츠,0,2
A065530,KR7065530008,전파기지국,0,2
A065560,KR7065560005,큐브스,0,2
A065570,KR7065570004,삼영이엔씨,0,2
A065620,KR7065620007,제낙스,0,2
A065650,KR7065650004,메디프론,0,2
A065680,KR7065680001,우주일렉트로,0,2
A065690,KR7065690000,대진디엠피,0,2
A065710,KR7065710006,서호전기,0,2
A065770,KR7065770000,CS,0,2
A065940,KR7065940009,케이에스씨비,0,2
A065950,KR7065950008,웰크론,0,2
A066110,KR7066110008,백산OPC,0,2
A066130,KR7066130006,하츠,0,2
A066270,KR7066270000,SK컴즈,0,2
A066310,KR7066310004,큐에스아이,0,2
A066410,KR7066410002,캔들미디어,0,2
A066430,KR7066430000,신후,0,2
A066590,KR7066590001,우수AMS,0,2
A066620,KR7066620006,국보디자인,0,2
A066670,KR7066670001,디스플레이텍,0,2
A066700,KR7066700006,테라젠이텍스,0,2
A066790,KR7066790007,씨씨에스,0,2
A066900,KR7066900002,디에이피,0,2
A066910,KR7066910001,손오공,0,2
A066970,KR7066970005,엘앤에프,0,2
A066980,KR7066980004,하이쎌,0,2
A067000,KR7067000000,조이시티,0,2
A067010,KR7067010009,이씨에스,0,2
A067080,KR7067080002,대화제약,0,2
A067160,KR7067160002,아프리카TV,0,2
A067170,KR7067170001,오텍,0,2
A067280,KR7067280008,크레듀,0,2
A067290,KR7067290007,JW중외신약,0,2
A067310,KR7067310003,하나마이크론,0,2
A067390,KR7067390005,아스트,0,2
A067570,KR7067570002,엔브이에이치코리아,0,2
A067630,KR7067630004,에너지솔루션,0,2
A067730,KR7067730002,로지시스,0,2
A067770,KR7067770008,세진티에스,0,2
A067900,KR7067900001,와이엔텍,0,2
A067920,KR7067920009,이글루시큐리티,0,2
A067990,KR7067990002,도이치모터스,0,2
A068050,KR7068050004,팬엔터테인먼트,0,2
A068060,KR7068060003,KCW,0,2
A068150,KR7068150002,엔티피아,0,2
A068240,KR7068240001,다원시스,0,2
A068270,KR7068270008,셀트리온,0,2
A068330,KR7068330000,일신바이오,0,2
A068760,KR7068760008,셀트리온제약,0,2
A068790,KR7068790005,DMS,0,2
A068930,KR7068930007,디지털대성,0,2
A068940,KR7068940006,아이씨케이,0,2
A069080,KR7069080000,웹젠,0,2
A069110,KR7069110005,코스온,0,2
A069140,KR7069140002,누리플랜,0,2
A069330,KR7069330009,유아이디,0,2
A069410,KR7069410009,엔텔스,0,2
A069510,KR7069510006,에스텍,0,2
A069540,KR7069540003,빛과전자,0,2
A069920,KR7069920007,아이에스이커머스,0,2
A070300,KR7070300009,솔라시아,0,2
A070590,KR7070590005,한솔인티큐브,0,2
A071200,KR7071200000,인피니트헬스케어,0,2
A071280,KR7071280002,로체시스템즈,0,2
A071670,KR7071670004,에이테크솔루션,0,2
A071850,KR7071850002,캐스텍코리아,0,2
A072020,KR7072020001,중앙백신,0,2
A072470,KR7072470008,우리산업홀딩스,0,2
A072520,KR7072520000,태양기전,0,2
A072770,KR7072770001,네오디안테크놀로지,0,2
A072870,KR7072870009,메가스터디,0,2
A072950,KR7072950009,빛샘전자,0,2
A073010,KR7073010001,케이에스피,0,2
A073070,KR7073070005,넥센테크,0,2
A073110,KR7073110009,엘엠에스,0,2
A073190,KR7073190001,디비케이,0,2
A073490,KR7073490005,이노와이어리스,0,2
A073540,KR7073540007,에프알텍,0,2
A073570,KR7073570004,에이티테크놀러지,0,2
A073640,KR7073640005,삼원테크,0,2
A074150,KR7074150004,엠제이비,0,2
A074430,KR7074430000,아미노로직스,0,2
A074600,KR7074600008,원익QnC,0,2
A075130,KR7075130005,플랜티넷,0,2
A075970,KR7075970004,동국알앤에스,0,2
A076080,KR7076080001,웰크론한텍,0,2
A076610,KR7076610005,해성옵틱스,0,2
A077280,KR7077280006,한컴지엠디,0,2
A077360,KR7077360006,덕산하이메탈,0,2
A078020,KR7078020005,이베스트투자증권,0,2
A078070,KR7078070000,유비쿼스,0,2
A078130,KR7078130002,국일제지,0,2
A078140,KR7078140001,대봉엘에스,0,2
A078150,KR7078150000,HB테크놀러지,0,2
A078160,KR7078160009,메디포스트,0,2
A078340,KR7078340007,컴투스,0,2
A078350,KR7078350006,한양디지텍,0,2
A078590,KR7078590007,두올산업,0,2
A078600,KR7078600004,대주전자재료,0,2
A078650,KR7078650009,코렌,0,2
A078780,KR7078780004,아이디에스,0,2
A078860,KR7078860004,포인트아이,0,2
A078890,KR7078890001,가온미디어,0,2
A078940,KR7078940004,일경산업개발,0,2
A079000,KR7079000006,와토스코리아,0,2
A079170,KR7079170007,한창산업,0,2
A079190,KR7079190005,EMW,0,2
A079370,KR7079370003,제우스,0,2
A079650,KR7079650008,서산,0,2
A079810,KR7079810008,디이엔티,0,2
A079940,KR7079940003,가비아,0,2
A079950,KR7079950002,LIG인베니아,0,2
A079960,KR7079960001,동양이엔피,0,2
A079970,KR7079970000,투비소프트,0,2
A080000,KR7080000003,에스엔유,0,2
A080010,KR7080010002,이상네트웍스,0,2
A080160,KR7080160005,모두투어,0,2
A080220,KR7080220007,제주반도체,0,2
A080420,KR7080420003,이노칩,0,2
A080440,KR7080440001,세진전자,0,2
A080470,KR7080470008,성창오토텍,0,2
A080520,KR7080520000,오디텍,0,2
A080530,KR7080530009,코디에스,0,2
A080580,KR7080580004,오킨스전자,0,2
A081150,KR7081150005,티플랙스,0,2
A081580,KR7081580003,성우전자,0,2
A081970,KR7081970006,한솔넥스지,0,2
A082210,KR7082210006,옵트론텍,0,2
A082270,KR7082270000,젬백스,0,2
A082390,KR7082390006,피엘에이,0,2
A082660,KR7082660002,삼우엠스,0,2
A082800,KR7082800004,루미마이크로,0,2
A082850,KR7082850009,우리이티아이,0,2
A082920,KR7082920000,비츠로셀,0,2
A083310,KR7083310003,엘오티베큠,0,2
A083450,KR7083450007,GST,0,2
A083470,KR7083470005,KJ프리텍,0,2
A083550,KR7083550004,케이엠,0,2
A083640,KR7083640003,인콘,0,2
A083650,KR7083650002,비에이치아이,0,2
A083660,KR7083660001,젠트로,0,2
A083790,KR7083790006,크리스탈,0,2
A083930,KR7083930008,아바코,0,2
A084110,KR7084110006,휴온스,0,2
A084180,KR7084180009,수성,0,2
A084370,KR7084370006,유진테크,0,2
A084650,KR7084650001,랩지노믹스,0,2
A084730,KR7084730001,팅크웨어,0,2
A084990,KR7084990001,바이로메드,0,2
A085370,KR7085370005,루트로닉,0,2
A085660,KR7085660009,차바이오텍,0,2
A085670,KR7085670008,뉴프렉스,0,2
A085810,KR7085810000,알티캐스트,0,2
A085910,KR7085910008,네오티스,0,2
A086040,KR7086040003,바이오톡스텍,0,2
A086060,KR7086060001,진바이오텍,0,2
A086200,KR7086200003,씨앤비텍,0,2
A086250,KR7086250008,화신테크,0,2
A086390,KR7086390002,유니테스트,0,2
A086450,KR7086450004,동국제약,0,2
A086520,KR7086520004,에코프로,0,2
A086670,KR7086670007,비엠티,0,2
A086830,KR7086830007,신양,0,2
A086890,KR7086890001,이수앱지스,0,2
A086900,KR7086900008,메디톡스,0,2
A086960,KR7086960002,MDS테크,0,2
A086980,KR7086980000,쇼박스,0,2
A087010,KR7087010005,펩트론,0,2
A087220,KR7087220000,스틸플라워,0,2
A087600,KR7087600003,픽셀플러스,0,2
A087730,KR7087730008,네패스신소재,0,2
A088130,KR7088130000,동아엘텍,0,2
A088290,KR7088290002,이원컴포텍,0,2
A088390,KR7088390000,이녹스,0,2
A088800,KR7088800008,에이스테크,0,2
A088910,KR7088910005,동우,0,2
A089010,KR7089010003,켐트로닉스,0,2
A089030,KR7089030001,테크윙,0,2
A089140,KR7089140008,넥스턴,0,2
A089150,KR7089150007,케이씨티,0,2
A089230,KR7089230007,용현BM,0,2
A089530,KR7089530000,에이티세미콘,0,2
A089600,KR7089600001,나스미디어,0,2
A089790,KR7089790000,제이티,0,2
A089850,KR7089850002,유비벨록스,0,2
A089890,KR7089890008,고려반도체,0,2
A089980,KR7089980007,상아프론테크,0,2
A090150,KR7090150004,광진윈텍,0,2
A090360,KR7090360009,로보스타,0,2
A090410,KR7090410002,덕신하우징,0,2
A090460,KR7090460007,비에이치,0,2
A090470,KR7090470006,AST젯텍,0,2
A090710,KR7090710005,디에스티로봇,0,2
A090730,KR7090730003,SIMPAC METALLOY,0,2
A090740,KR7090740002,연이정보통신,0,2
A090850,KR7090850009,이지웰페어,0,2
A091120,KR7091120006,이엠텍,0,2
A091340,KR7091340000,S&K폴리텍,0,2
A091440,KR7091440008,텔레필드,0,2
A091580,KR7091580001,상신이디피,0,2
A091590,KR7091590000,남화토건,0,2
A091700,KR7091700005,파트론,0,2
A091970,KR7091970004,나노캠텍,0,2
A092040,KR7092040005,아미코젠,0,2
A092070,KR7092070002,디엔에프,0,2
A092130,KR7092130004,이크레더블,0,2
A092300,KR7092300003,현우산업,0,2
A092460,KR7092460005,한라IMS,0,2
A092600,KR7092600006,넥스트칩,0,2
A092730,KR7092730001,네오팜,0,2
A093190,KR7093190007,빅솔론,0,2
A093320,KR7093320000,케이아이엔엑스,0,2
A093380,KR7093380004,풍강,0,2
A093520,KR7093520005,매커스,0,2
A093640,KR7093640001,다믈멀티미디어,0,2
A093920,KR7093920007,서원인텍,0,2
A094170,KR7094170008,동운아나텍,0,2
A094190,KR7094190006,이엘케이,0,2
A094360,KR7094360005,칩스앤미디어,0,2
A094480,KR7094480001,갤럭시아컴즈,0,2
A094820,KR7094820008,일진파워,0,2
A094840,KR7094840006,슈프리마,0,2
A094850,KR7094850005,참좋은레져,0,2
A094860,KR7094860004,코닉글로리,0,2
A094940,KR7094940004,푸른기술,0,2
A094970,KR7094970001,제이엠티,0,2
A095190,KR7095190005,이엠코리아,0,2
A095270,KR7095270005,웨이브일렉트로,0,2
A095300,KR7095300000,엔에스브이,0,2
A095340,KR7095340006,ISC,0,2
A095500,KR7095500005,미래나노텍,0,2
A095610,KR7095610002,테스,0,2
A095660,KR7095660007,네오위즈게임즈,0,2
A095700,KR7095700001,제넥신,0,2
A095910,KR7095910006,에스에너지,0,2
A096040,KR7096040001,이트론,0,2
A096240,KR7096240007,청담러닝,0,2
A096350,KR7096350004,대창솔루션,0,2
A096530,KR7096530001,씨젠,0,2
A096610,KR7096610001,알에프세미,0,2
A096630,KR7096630009,에스코넥,0,2
A096640,KR7096640008,멜파스,0,2
A096690,KR7096690003,세우테크,0,2
A096870,KR7096870001,엘디티,0,2
A097520,KR7097520001,엠씨넥스,0,2
A097780,KR7097780001,에스맥,0,2
A097870,KR7097870000,효성오앤비,0,2
A098120,KR7098120009,마이크로컨텍솔,0,2
A098460,KR7098460009,고영,0,2
A098660,KR7098660004,에스티오,0,2
A099190,KR7099190001,아이센스,0,2
A099220,KR7099220006,SDN,0,2
A099320,KR7099320004,쎄트렉아이,0,2
A099410,KR7099410003,동방선기,0,2
A099440,KR7099440000,스맥,0,2
A099520,KR7099520009,ITX시큐리티,0,2
A099660,KR7099660003,한솔신텍,0,2
A099830,KR7099830002,씨그널엔터테인먼트그,0,2
A100030,KR7100030006,모바일리더,0,2
A100090,KR7100090000,삼강엠앤티,0,2
A100120,KR7100120005,뷰웍스,0,2
A100130,KR7100130004,동국S&C,0,2
A100660,KR7100660000,서암기계공업,0,2
A100700,KR7100700004,세운메디칼,0,2
A101000,KR7101000008,디엠씨,0,2
A101160,KR7101160000,월덱스,0,2
A101170,KR7101170009,우림기계,0,2
A101240,KR7101240000,씨큐브,0,2
A101330,KR7101330009,모베이스,0,2
A101390,KR7101390003,아이엠,0,2
A101400,KR7101400000,네오피델리티,0,2
A101490,KR7101490001,에스앤에스텍,0,2
A101670,KR7101670008,코리아에스이,0,2
A101680,KR7101680007,한국정밀기계,0,2
A101730,KR7101730000,조이맥스,0,2
A101930,KR7101930006,인화정공,0,2
A102120,KR7102120003,어보브반도체,0,2
A102210,KR7102210002,해덕파워웨이,0,2
A102710,KR7102710001,이엔에프테크놀로지,0,2
A102940,KR7102940004,코오롱생명과학,0,2
A103230,KR7103230009,에스앤더블류,0,2
A104040,KR7104040001,대성파인텍,0,2
A104200,KR7104200001,네오위즈인터넷,0,2
A104460,KR7104460001,동양피엔에프,0,2
A104480,KR7104480009,티케이케미칼,0,2
A104540,KR7104540000,코렌텍,0,2
A104830,KR7104830005,원익머트리얼즈,0,2
A105330,KR7105330005,케이엔더블유,0,2
A105550,KR7105550008,트루윈,0,2
A105740,KR7105740005,디케이락,0,2
A106080,KR7106080005,하이소닉,0,2
A106190,KR7106190002,하이텍팜,0,2
A106240,KR7106240005,파인테크닉스,0,2
A106520,KR7106520000,디지탈옵틱,0,2
A108230,KR7108230004,톱텍,0,2
A108320,KR7108320003,실리콘웍스,0,2
A108380,KR7108380007,대양전기공업,0,2
A108790,KR7108790007,인터파크,0,2
A108860,KR7108860008,디오텍,0,2
A109080,KR7109080002,옵티시스,0,2
A109740,KR7109740001,디에스케이,0,2
A109820,KR7109820001,진매트릭스,0,2
A109860,KR7109860007,동일금속,0,2
A109960,KR7109960005,로코조이,0,2
A111610,KR7111610002,승화프리텍,0,2
A111820,KR7111820007,처음앤씨,0,2
A111870,KR7111870002,삼본정밀전자,0,2
A112040,KR7112040001,위메이드,0,2
A112240,KR7112240007,에스에프씨,0,2
A113810,KR7113810006,디젠스,0,2
A114120,KR7114120009,크루셜텍,0,2
A114190,KR7114190002,웰크론강원,0,2
A114450,KR7114450000,KPX생명과학,0,2
A114570,KR7114570005,지스마트글로벌,0,2
A114630,KR7114630007,우노앤컴퍼니,0,2
A114810,KR7114810005,아이원스,0,2
A115160,KR7115160004,휴맥스,0,2
A115310,KR7115310005,인포바인,0,2
A115440,KR7115440000,우리넷,0,2
A115450,KR7115450009,지트리비앤티,0,2
A115480,KR7115480006,씨유메디칼,0,2
A115500,KR7115500001,케이씨에스,0,2
A115530,KR7115530008,씨엔플러스,0,2
A115570,KR7115570004,스타플렉스,0,2
A115610,KR7115610008,이미지스,0,2
A117670,KR7117670000,알파칩스,0,2
A119500,KR7119500007,포메탈,0,2
A119610,KR7119610004,인터로조,0,2
A119830,KR7119830008,아이텍반도체,0,2
A119850,KR7119850006,지엔씨에너지,0,2
A119860,KR7119860005,다나와,0,2
A120240,KR7120240007,대정화금,0,2
A121440,KR7121440002,골프존유원홀딩스,0,2
A121600,KR7121600001,나노신소재,0,2
A121800,KR7121800007,티브이로직,0,2
A121850,KR7121850002,코이즈,0,2
A121890,KR7121890008,에스디시스템,0,2
A122350,KR7122350002,삼기오토모티브,0,2
A122450,KR7122450000,KMH,0,2
A122690,KR7122690001,서진오토모티브,0,2
A122800,KR7122800006,케이티롤,0,2
A122870,KR7122870009,와이지엔터테인먼트,0,2
A122990,KR7122990005,와이솔,0,2
A123040,KR7123040008,엠에스오토텍,0,2
A123100,KR7123100000,테라세미콘,0,2
A123260,KR7123260002,사파이어테크놀로지,0,2
A123330,KR7123330003,제닉,0,2
A123410,KR7123410003,코리아에프티,0,2
A123420,KR7123420002,선데이토즈,0,2
A123570,KR7123570004,이엠넷,0,2
A123750,KR7123750002,알톤스포츠,0,2
A123840,KR7123840001,한일진공,0,2
A123860,KR7123860009,아나패스,0,2
A124500,KR7124500000,아이티센,0,2
A126600,KR7126600006,코프라,0,2
A126640,KR7126640002,화신정공,0,2
A126700,KR7126700004,하이비젼시스템,0,2
A126870,KR7126870005,뉴로스,0,2
A126880,KR7126880004,제이엔케이히터,0,2
A127120,KR7127120004,디엔에이링크,0,2
A127710,KR7127710002,아시아경제,0,2
A128660,KR7128660008,피제이메탈,0,2
A130500,KR7130500002,금호엔티,0,2
A130580,KR7130580004,나이스디앤비,0,2
A130740,KR7130740004,티피씨글로벌,0,2
A130960,KR7130960008,CJ E&M,0,2
A131030,KR7131030009,디에이치피코리아,0,2
A131090,KR7131090003,시큐브,0,2
A131100,KR7131100000,리켐,0,2
A131180,KR7131180002,딜리,0,2
A131220,KR7131220006,대한과학,0,2
A131290,KR7131290009,티에스이,0,2
A131370,KR7131370009,알서포트,0,2
A131390,KR7131390007,피앤이솔루션,0,2
A131400,KR7131400004,액트,0,2
A131760,KR7131760001,파인텍,0,2
A131970,KR7131970006,테스나,0,2
A134060,KR7134060003,이퓨쳐,0,2
A134580,KR7134580000,디엠티,0,2
A134780,KR7134780006,화진,0,2
A136480,KR7136480001,하림,0,2
A136510,KR7136510005,쎄미시스코,0,2
A136540,KR7136540002,윈스,0,2
A137400,KR7137400008,피엔티,0,2
A137940,KR7137940003,넥스트아이,0,2
A137950,KR7137950002,제이씨케미칼,0,2
A138070,KR7138070008,신진에스엠,0,2
A138080,KR7138080007,오이솔루션,0,2
A138360,KR7138360003,에이씨티,0,2
A138610,KR7138610001,나이벡,0,2
A138690,KR7138690003,엘아이에스,0,2
A139050,KR7139050009,경봉,0,2
A139670,KR7139670004,넥스트리밍,0,2
A140410,KR7140410002,메지온,0,2
A140520,KR7140520008,대창스틸,0,2
A141000,KR7141000000,비아트론,0,2
A141020,KR7141020008,포티스,0,2
A141070,KR7141070003,맥스로텍,0,2
A141080,KR7141080002,레고켐바이오,0,2
A142280,KR7142280007,녹십자엠에스,0,2
A143160,KR7143160000,아이디스,0,2
A143240,KR7143240000,사람인에이치알,0,2
A143540,KR7143540003,영우디에스피,0,2
A147830,KR7147830004,제룡산업,0,2
A149940,KR7149940009,모다정보통신,0,2
A149950,KR7149950008,아바텍,0,2
A149980,KR7149980005,하이로닉,0,2
A150840,KR7150840007,인트로메딕,0,2
A150900,KR7150900009,파수닷컴,0,2
A151860,KR7151860004,KG ETS,0,2
A151910,KR7151910007,나노스,0,2
A153460,KR7153460001,네이블,0,2
A153490,KR7153490008,우리이앤엘,0,2
A154040,KR7154040000,솔루에타,0,2
A155650,KR7155650005,와이엠씨,0,2
A155960,KR7155960008,지디,0,2
A158310,KR7158310003,세호로보트,0,2
A158380,KR7158380006,삼목강업,0,2
A159580,KR7159580000,제로투세븐,0,2
A159910,KR7159910009,MBK,0,2
A160550,KR7160550000,NEW,0,2
A160600,KR7160600003,에스엔텍,0,2
A160980,KR7160980009,싸이맥스,0,2
A161570,KR7161570007,미동전자통신,0,2
A166480,KR7166480004,코아스템,0,2
A168330,KR7168330009,내츄럴엔도텍,0,2
A170030,KR7170030001,현대공업,0,2
A170790,KR7170790000,파이오링크,0,2
A170920,KR7170920003,엘티씨,0,2
A171010,KR7171010002,램테크놀러지,0,2
A171120,KR7171120009,라이온켐텍,0,2
A173940,KR7173940008,에프엔씨엔터,0,2
A177350,KR7177350006,베셀,0,2
A177830,KR7177830007,파버나인,0,2
A178780,KR7178780003,유테크,0,2
A178920,KR7178920005,SKC코오롱PI,0,2
A182360,KR7182360008,큐브엔터,0,2
A182690,KR7182690008,테라셈,0,2
A184230,KR7184230001,레드비씨,0,2
A187220,KR7187220009,디티앤씨,0,2
A187270,KR7187270004,신화콘텍,0,2
A187420,KR7187420005,제노포커스,0,2
A187790,KR7187790001,나노,0,2
A189690,KR7189690001,포시에스,0,2
A189860,KR7189860000,서전기전,0,2
A189980,KR7189980006,흥국에프엔비,0,2
A191420,KR7191420009,테고사이언스,0,2
A192250,KR7192250009,케이사인,0,2
A192390,KR7192390003,윈하이텍,0,2
A192410,KR7192410009,감마누,0,2
A192440,KR7192440006,슈피겐코리아,0,2
A193250,KR7193250008,영백씨엠,0,2
A194480,KR7194480000,데브시스터즈,0,2
A194510,KR7194510004,파티게임즈,0,2
A194610,KR7194610002,우성아이비,0,2
A195990,KR7195990007,유지인트,0,2
A196170,KR7196170005,알테오젠,0,2
A196450,KR7196450001,차디오스텍,0,2
A196490,KR7196490007,디에이테크놀로지,0,2
A200130,KR7200130003,콜마비앤에이치,0,2
A200230,KR7200230001,텔콘,0,2
A200470,KR7200470003,하이셈,0,2
A200670,KR7200670008,휴메딕스,0,2
A200710,KR7200710002,에이디테크놀로지,0,2
A200780,KR7200780005,비씨월드제약,0,2
A205100,KR7205100001,엑셈,0,2
A213420,KR7213420003,덕산네오룩스,0,2
A214180,KR7214180002,민앤지,0,2
A214310,KR7214310005,세미콘라이트,0,2
A214430,KR7214430001,아이쓰리시스템,0,2
A214450,KR7214450009,파마리서치프로덕트,0,2
A215000,KR7215000001,골프존,0,2
A215200,KR7215200007,메가스터디교육,0,2
A215360,KR7215360009,우리산업,0,2
A222800,KR7222800005,심텍,0,2
A900040,KYG210AT1036,차이나그레이트,0,2
A900070,KYG3931T1076,글로벌에스엠,0,2
A900080,HK0000055043,에스앤씨엔진그룹,0,2
A900090,HK0000054723,차이나하오란,0,2
A900100,USU652221081,뉴프라이드,0,2
A900110,HK0000057197,이스트아시아홀딩스,0,2
A900120,KYG2114A1094,씨케이에이치,0,2
A900130,HK0000064334,웨이포트,0,2
A900180,HK0000065257,완리,0,2
A950110,KR8392070007,SBI액시즈,0,2
A950130,KR8840090003,엑세스바이오,0,2
